"Nom végétalisé"	"Nom nutrinet"	"Nom de recette"	"Code de l'ingrédient"	"Nom de l'ingrédient"	"% de la masse de la recette"	"Energie, Règlement UE 1169/2011 (kJ/100g)"	"Energie, Règlement UE 1169/2011 (kcal/100g)"	"Energie, N x facteur Jones, avec fibres (kJ/100g)"	"Energie, N x facteur Jones, avec fibres (kcal/100g)"	"Eau (g/100g)"	"Sodium (mg/100g)"	"Magnésium (mg/100g)"	"Phosphore (mg/100g)"	"Potassium (mg/100g)"	"Calcium (mg/100g)"	"Manganèse (mg/100g)"	"Fer (mg/100g)"	"Cuivre (mg/100g)"	"Zinc (mg/100g)"	"Sélénium (µg/100g)"	"Iode (µg/100g)"	"Protéines (g/100g)"	"Protéines brutes, N x 6.25 (g/100g)"	"Glucides (g/100g)"	"Sucres (g/100g)"	"Amidon (g/100g)"	"Polyols totaux (g/100g)"	"Fibres (g/100g)"	"Lipides (g/100g)"	"AG saturés (g/100g)"	"AG monoinsaturés (g/100g)"	"AG polyinsaturés (g/100g)"	"AG 4:0, butyrique (g/100g)"	"AG 6:0, caproïque (g/100g)"	"AG 8:0, caprylique (g/100g)"	"AG 10:0, caprique (g/100g)"	"AG 12:0, laurique (g/100g)"	"AG 14:0, myristique (g/100g)"	"AG 16:0, palmitique (g/100g)"	"AG 18:0, stéarique (g/100g)"	"AG 18:1 9c (n-9), oléique (g/100g)"	"AG 18:2 9c,12c (n-6), linoléique (g/100g)"	"AG 18:3 c9,c12,c15 (n-3), alpha-linolénique (g/100g)"	"AG 20:4 5c,8c,11c,14c (n-6), arachidonique (g/100g)"	"AG 20:5 5c,8c,11c,14c,17c (n-3), EPA (g/100g)"	"AG 22:6 4c,7c,10c,13c,16c,19c (n-3), DHA (g/100g)"	"Rétinol (µg/100g)"	"Beta-Carotène (µg/100g)"	"Vitamine D (µg/100g)"	"Vitamine E (mg/100g)"	"Vitamine K (µg/100g)"	"Vitamine C (mg/100g)"	"Vitamine B1 ou Thiamine (mg/100g)"	"Vitamine B2 ou Riboflavine (mg/100g)"	"Vitamine B3 ou PP ou Niacine (mg/100g)"	"Vitamine B5 ou Acide pantothénique (mg/100g)"	"Vitamine B6 (mg/100g)"	"Vitamine B12 (µg/100g)"	"Vitamine B9 ou Folates totaux (µg/100g)"	"Alcool (g/100g)"	"Acides organiques (g/100g)"	"Cholestérol (mg/100g)"
"Carotte râpée au naturel"	"beignet à la confiture"	"Raph recipe"	7225	"Pain brioché ou viennois"	4.08	61.22449	14.57143	60.81633	14.44898	1	21.42857	0.87755	4.97959	6.65306	1.73469	0.01837	0.0449	-	0.03061	"< 0.20408"	"< 0.40816"	0.33469	0.36694	2.02041	0.07755	1.53469	0	0.12653	0.53061	0.34653	0.12122	0.04204	0.02306	0.01608	0.0001	0.0002	0.01445	0.03735	0.19714	0.01747	0.12122	0.03853	0.00355	-	0.00015	0	0.97959	2.57143	"< 0.00816"	0.01143	-	-	0.00392	0.00686	"< 0.05306"	0.02122	0.00449	0.06939	1.97959	0	0	1.25306
"Carotte râpée au naturel"	"beignet à la confiture"	"Raph recipe"	9615	"Polenta ou semoule de maïs, cuite"	6.12	16.04082	3.78367	16.04082	3.78367	5.18571	0.18367	0.50816	1.22449	1.63469	0.5449	"< 0.06122"	"< 0.06122"	-	"< 0.06122"	"< 0.30612"	"< 0.61224"	0.08571	0.08571	0.80816	-	0.66122	0	0.01776	0.01898	0.00236	0.00544	0.01022	0	0	0	0	0	1.0E-5	0.00187	0.00032	0.00444	0.01004	0.00018	0	0	0	-	"< 3.06122"	-	"< 0.00453"	-	-	"< 0.00306"	"< 0.00306"	"< 0.00306"	0.01286	"< 0.00306"	0	0.79592	0	0	"< 0.00352"
"Carotte râpée au naturel"	"beignet à la confiture"	"Raph recipe"	11000	"Ail frais"	2.04	11.32653	2.67347	11.32653	2.67347	1.30612	0.35918	0.42245	3.28571	11.32653	0.36122	0.00837	0.02694	0.00173	0.01592	0.10408	0.06122	0.16122	0.16122	0.43878	0.03204	0.27347	0	0.09592	0.00959	0.00196	0.00022	0.00543	0	0	0	4.0E-5	0	1.0E-5	0.00178	0	0.00022	0.00469	0.00041	0	0	0	0	0.35714	0	0.0002	-	0.34694	0.00265	0.00061	0.00612	0.01216	0.02408	0	0.10204	0	-	0
"Carotte râpée au naturel"	"beignet à la confiture"	"Raph recipe"	11038	"Thym, sec"	20.41	248.98	59.38776	248.98	59.38776	1.59184	7.4898	22.44898	27.34694	110.408	257.143	1.60612	16.81633	0.17551	1.26327	-	-	1.23878	1.23878	8.5102	4.79592	0	0	5.67347	1.00816	0.55714	0.09592	0.24286	0	0	0.04898	-	0.04694	0.02755	0.35102	0.05714	-	-	-	-	0	0	0	463.265	0	1.86735	-	3.40816	0.06959	0.05429	0.66939	"traces * 0.20408163265306"	0.06327	0	18.63265	0	-	0
"Carotte râpée au naturel"	"beignet à la confiture"	"Raph recipe"	13033	"Olive verte, entière ou dénoyautée, en saumure"	36.73	218.571	53.26531	218.571	53.26531	27.62449	617.143	9	5.10612	14.43673	13.22449	0.0202	0.24429	0.07714	0.15429	0.33061	1.65306	0.37469	0.37469	0.4849	"traces * 0.36734693877551"	"< 0.03673"	0	1.87347	5.10612	0.73102	3.57796	0.48122	0	0	0	0	0	"< 0.00463"	0.59878	0.10947	3.39796	0.35706	0.02682	0	0	0	0	84.85714	0	0.73102	-	0	"traces * 0.36734693877551"	"traces * 0.36734693877551"	"traces * 0.36734693877551"	0.00735	0.00735	0	2.35102	0	-	0
"Carotte râpée au naturel"	"beignet à la confiture"	"Raph recipe"	19011	"Lait de croissance infantile"	6.12	15.55102	3.70408	15.55102	3.7102	5.36327	2.00204	0.46531	3.67347	5.58367	4.57347	"< 0.06122"	"< 0.06122"	0.00043	"< 0.06122"	"< 0.30612"	0.91837	0.11633	0.11388	0.45367	-	-	0	0	0.15918	-	-	-	-	-	-	-	-	-	-	-	-	-	-	-	-	-	3.42857	"< 3.06122"	0.08571	0.0398	-	-	"< 0.00367"	0.01408	0.05143	0.02388	0.00612	0.01898	0.9	0	-	0.18367
"Carotte râpée au naturel"	"beignet à la confiture"	"Raph recipe"	19420	"Crème chantilly sous pression, UHT"	4.08	48.16327	11.63265	48.16327	11.63265	2.50204	5.30612	0.44898	3.63265	6	4.12245	4.0E-5	0.00204	0.00041	0.0151	-	0.44898	0.09224	0.0902	0.3902	0.32653	-	0	0	1.07755	0.67755	0.2702	0.03563	0.04041	0.02286	0.01306	0.02694	0.03653	0.10898	0.29347	0.09592	0.19551	0.01739	0.00531	0.00082	0.00091	0	7.5102	1.7551	0.01633	-	-	0	0.00151	0.00265	0.00286	0.01245	0.00167	0.01184	0.12245	0	-	3.22449
"Carotte râpée au naturel"	"beignet à la confiture"	"Raph recipe"	24000	"Biscuit sec, tout type"	6.12	121.837	29.08163	121.837	29.08163	0.21551	15.61224	0.85714	11.63265	9.61224	0.61224	0.0551	0.02449	0.00612	0.03673	1.46939	0.25408	0.39796	0.39796	4.05306	1.4449	1.46939	0	0.18367	1.21224	0.38816	0.41633	0.16959	0	0.00918	0.01831	0.01831	0.01353	0.04371	0.1849	0.10041	0.19653	0.04629	0.00527	-	"< 0.00089"	"< 0.00024"	-	-	0.02449	0.08571	-	0	0.00306	0.00306	0.0398	0.01837	0.00245	0.00612	0.85714	0	0	9.42857
"Carotte râpée au naturel"	"beignet à la confiture"	"Raph recipe"	24010	"Biscuit sec, avec matière grasse végétale"	14.29	271.429	64.42857	271.429	64.42857	0.32571	38.85714	5.3	20.28571	17	7.74286	0.12857	0.30857	0.02214	0.14429	-	0.85714	1.17143	1.17143	10	3.22857	6.77143	0	0.57143	2.07143	0.77143	0.70857	0.28857	0	0.01814	0.03643	0.03643	0.02686	0.08686	0.36714	0.2	0.33571	0.07886	0.00899	-	"< 0.00153"	"< 0.0004"	-	-	-	-	-	-	-	-	-	-	-	-	-	0	0	3.05714
"Carotte râpée au naturel"	"beignet à la confiture"	"Raph recipe"	25405	"Quiche lorraine"	4.08	45.30612	10.89796	45.30612	10.89796	2.15102	23.83673	0.63673	4.73469	6.81633	3.8	0.00395	0.02563	0.00193	0.03282	"< 0.40816"	1.26531	0.44082	0.44082	0.68163	0.06612	-	0	0.03612	0.70612	0.29306	0.23551	0.07224	0.00645	0.00343	0.00216	0.00441	0.00727	0.02486	0.18204	0.05265	0.15388	0.04612	0.00547	0.00041	-	-	2.13469	-	0.04898	0.06286	-	0.02878	0.0051	0.00592	0.01918	-	0.00408	0.01204	0.60408	0	-	2.08571
